## Interface: 70200
## Title: |cffffffffMyUI|r |cff1784d1UnitFrames|r
## Notes: a unit frame replacement
## Author: |cfff58cbaJusticeFury (EU Azuremyst)|r
## Version: 0.2beta
## DefaultState: enabled

config.lua
core.lua
events.lua
#castbar.lua
